<?xml version="1.0" encoding="utf-8"?>
<!-- Generator: Adobe Illustrator 18.0.0, SVG Export Plug-In . SVG Version: 6.00 Build 0)  -->
<!DOCTYPE svg PUBLIC "-//W3C//DTD SVG 1.1//EN" "http://www.w3.org/Graphics/SVG/1.1/DTD/svg11.dtd">
<svg version="1.1" id="Calque_1" xmlns="http://www.w3.org/2000/svg" xmlns:xlink="http://www.w3.org/1999/xlink" x="0px" y="0px"
	 viewBox="0 0 57.4 66.5" enable-background="new 0 0 57.4 66.5" xml:space="preserve">
<polygon fill="none" stroke="#EF7F6D" stroke-width="2" stroke-miterlimit="10" points="28.8,2.3 55.7,17.8 55.7,48.8 28.8,64.3 
	2,48.8 2,17.8 "/>
<polygon fill="none" stroke="#EF7F6D" stroke-width="2" stroke-linejoin="round" stroke-miterlimit="10" points="28.8,18.1 
	41.5,41.3 16.2,41.3 "/>
<polygon fill="none" stroke="#EF7F6D" stroke-width="2" stroke-linejoin="round" stroke-miterlimit="10" points="2.9,17.9 
	54.8,17.9 28.8,62.4 "/>
<line fill="none" stroke="#EF7F6D" stroke-width="2" stroke-miterlimit="10" x1="40.8" y1="41" x2="55.5" y2="48.8"/>
<line fill="none" stroke="#EF7F6D" stroke-width="2" stroke-miterlimit="10" x1="28.8" y1="2.3" x2="28.8" y2="17.9"/>
<line fill="none" stroke="#EF7F6D" stroke-width="2" stroke-miterlimit="10" x1="2" y1="48.8" x2="16.4" y2="41"/>
</svg>
