<?xml version="1.0" encoding="utf-8"?>
<!-- Generator: Adobe Illustrator 18.0.0, SVG Export Plug-In . SVG Version: 6.00 Build 0)  -->
<!DOCTYPE svg PUBLIC "-//W3C//DTD SVG 1.1//EN" "http://www.w3.org/Graphics/SVG/1.1/DTD/svg11.dtd">
<svg xmlns="http://www.w3.org/2000/svg" xmlns:xlink="http://www.w3.org/1999/xlink" version="1.1" id="Calque_1" x="0px" y="0px" viewBox="0 0 160 40" enable-background="new 0 0 160 40" xml:space="preserve">
<g>
	<defs>
		<path id="SVGID_1_" d="M39.5,10.6h-9.3V5.3H12.4v5.2H3.1l8.9,9.2L3.1,29h9.3v5.2h17.9V29h9.3l-8.9-9.2L39.5,10.6z M30.2,27.1V22    l4.9,5.1H30.2z M28.5,29v3.3H14.2V29h7.5l6.7-6.9V29z M12.4,12.4H21l6.2,6.4H13.7l-0.4-0.4l-0.9-0.9l-4.9-5.1H12.4z M14.2,7.2    h14.3v10.3l-6.7-6.9h-7.5V7.2z M30.2,12.4h4.9l-4.9,5.1V12.4z M12.4,22l0.9-0.9v0l0.4-0.4h13.5l-5.8,6L21,27.1H7.5L12.4,22z"/>
	</defs>
	<clipPath id="SVGID_2_">
		<use xlink:href="#SVGID_1_" overflow="visible"/>
	</clipPath>
	<g clip-path="url(#SVGID_2_)">
		<defs>
			<rect id="SVGID_3_" x="-226.9" y="-47.7" width="1400" height="4447"/>
		</defs>
		<clipPath id="SVGID_4_">
			<use xlink:href="#SVGID_3_" overflow="visible"/>
		</clipPath>
		<rect x="-1.9" y="0.3" clip-path="url(#SVGID_4_)" fill="#484848" width="46.4" height="38.8"/>
	</g>
</g>
<g>
	<path fill="#484848" d="M52.7,13.7c1.3,0,2.3,0.6,3,1.3l-1,1.1c-0.5-0.5-1.1-0.9-1.9-0.9c-1.7,0-3,1.4-3,3.8c0,2.4,1.1,3.8,2.9,3.8   c0.9,0,1.6-0.4,2.2-1l1,1.1c-0.9,1-2,1.5-3.3,1.5c-2.7,0-4.7-1.9-4.7-5.4C47.9,15.7,50,13.7,52.7,13.7z"/>
	<path fill="#484848" d="M63.2,21.6l-3.5,0l-0.8,2.8l-1.9,0L60.4,14l2.2,0L66,24.5l-2,0L63.2,21.6z M62.8,20.2l-0.4-1.3   c-0.3-1.1-0.6-2.3-0.9-3.5l-0.1,0c-0.3,1.2-0.6,2.3-0.9,3.5l-0.4,1.3L62.8,20.2z"/>
	<path fill="#484848" d="M68,14l1.9,0l0,8.9l4.4,0l0,1.6l-6.2,0L68,14z"/>
	<path fill="#484848" d="M76.8,14.1l1.9,0l-0.1,10.5l-1.9,0L76.8,14.1z"/>
	<path fill="#484848" d="M86.5,13.9c1.4,0,2.5,0.7,3.1,1.3l-1,1.1c-0.5-0.5-1.1-0.9-2.1-0.9c-1.9,0-3.1,1.4-3.1,3.8   c0,2.4,1.1,3.8,3.2,3.8c0.6,0,1.2-0.2,1.5-0.5l0-2.3l-2,0l0-1.5l3.6,0l0,4.6c-0.7,0.7-2,1.2-3.4,1.2c-2.8,0-4.9-1.9-4.9-5.4   C81.5,15.9,83.7,13.9,86.5,13.9z"/>
	<path fill="#484848" d="M98.5,24.6l-2.2-4.1l-1.6,0l0,4.1l-1.9,0l0.1-10.5l3.5,0c2.2,0,3.8,0.8,3.8,3.1c0,1.6-0.8,2.6-2.1,3   l2.5,4.4L98.5,24.6z M94.7,19l1.5,0c1.4,0,2.2-0.6,2.2-1.8c0-1.2-0.8-1.6-2.2-1.6l-1.5,0L94.7,19z"/>
	<path fill="#484848" d="M107.8,21.9l-3.5,0l-0.8,2.8l-1.9,0l3.5-10.4l2.2,0l3.4,10.5l-2,0L107.8,21.9z M107.4,20.4l-0.4-1.3   c-0.3-1.1-0.6-2.3-0.9-3.5l-0.1,0c-0.3,1.2-0.6,2.3-0.9,3.5l-0.4,1.3L107.4,20.4z"/>
</g>
<g>
	<path fill="#484848" d="M112.7,14.1h2l1.9,5.2l0.7,2h0.1l0.7-2l1.9-5.2h2v10.5h-1.7v-4.8c0-1,0.1-2.4,0.2-3.3h-0.1l-0.8,2.4   l-1.8,4.8h-0.9l-1.8-4.8l-0.8-2.4h-0.1c0.1,1,0.2,2.4,0.2,3.3v4.8h-1.7V14.1z"/>
	<path fill="#484848" d="M127.9,14.1h3.5c2.3,0,4,0.8,4,3.2c0,2.3-1.7,3.4-4,3.4h-1.7v3.8h-1.9V14.1z M131.3,19.2   c1.6,0,2.3-0.6,2.3-1.9c0-1.3-0.8-1.7-2.3-1.7h-1.5v3.6H131.3z"/>
	<path fill="#484848" d="M143.1,24.5l-2.3-4.1h-1.6v4.1h-1.9V14.1h3.5c2.2,0,3.8,0.8,3.8,3.1c0,1.6-0.8,2.6-2.1,3l2.5,4.4H143.1z    M139.3,19h1.5c1.4,0,2.2-0.6,2.2-1.8c0-1.2-0.8-1.6-2.2-1.6h-1.5V19z"/>
	<path fill="#484848" d="M146.4,19.2c0-3.4,1.9-5.4,4.6-5.4c2.7,0,4.6,2,4.6,5.4c0,3.4-1.9,5.5-4.6,5.5   C148.3,24.7,146.4,22.6,146.4,19.2z M153.8,19.2c0-2.3-1.1-3.8-2.7-3.8c-1.6,0-2.7,1.4-2.7,3.8c0,2.4,1.1,3.9,2.7,3.9   C152.7,23.1,153.8,21.6,153.8,19.2z"/>
</g>
</svg>
